,,,,,,,,,,,,,,,,,,
,"Total Words Spoken by the Main Characters of ""The Office""",,,,,,,,,,,,,,,,,
,,Michael,Dwight,Jim,Pam,Andy,Angela,Erin,Kevin,Ryan,Oscar,Darryl,Kelly,Toby,Phyllis,Stanley,Meredith,Creed
,S1,"8,587","2,109","2,320","1,164",-,124,-,151,207,260,102,11,57,76,142,114,0
,S2,"26,367","8,266","7,034","5,405",-,970,-,764,"1,240",736,532,"1,173",941,527,599,186,426
,S3,"24,066","8,266","5,855","5,290","3,542","1,927",-,"1,307","1,425",488,997,"1,531",946,671,616,231,711
,S4,"20,143","4,877","5,277","3,686","2,193","1,604",-,"1,024","2,117",638,339,609,942,617,664,333,570
,S5,"27,168","10,295","7,521","5,942","4,892","1,948",265,"1,241","1,629","1,650",581,"1,448",789,"1,395",891,764,387
,S6,"24,924","8,987","8,324","6,152","6,014",978,"2,468","1,656","1,140","1,606",911,"1,232",819,"1,134",523,634,340
,S7,"18,397","8,292","6,212","6,169","5,969","1,468","2,533","1,923","2,013","1,585","2,120","1,809","1,000","1,255",566,577,666
,S8,-,"11,023","7,553","3,800","12,282","1,272","3,463","2,056","2,068","1,926","2,598","1,261","1,093",801,871,518,223
,S9,22,"13,618","8,385","7,825","8,125","3,319","3,767","2,325",207,"3,041","2,660",168,"1,198","1,099",834,992,555
,Total,"149,674","75,733","58,481","45,433","43,017","13,610","12,496","12,447","12,046","11,930","10,840","9,242","7,785","7,575","5,706","4,349","3,878"